digraph G {
  d2tfigpreamble = "
    \tikzstyle{init}=[color=red, line width=3pt, font=\bf]
    \tikzstyle{visited}=[color=blue, line width=3pt, font=\bf]
    \tikzstyle{visited2}=[color=green, line width=3pt, font=\bf]
    \tikzstyle{visited3}=[color=cyan, line width=3pt, font=\bf]
    \tikzstyle{visited4}=[color=magenta, line width=3pt, font=\bf]
  "
  graph [overlap=false, splines=true];
  edge [dir="both"];
  node [shape=ellipse];
  vilnus[label="Вильнюс", style="visited"];
  brest[label="Брест", style="init"];
  vitebsk[label="Витебск", style="visited"];
  voronezh[label="Воронеж", style="visited"];
  volgograd[label="Волгоград", style="visited"];
  nizh_novgorod[label="Н.Новгород", style="visited"];
  daugavpils[label="Даугавпилс", style="visited"];
  kaliningrad[label="Калининград", style="visited"];
  kaunas[label="Каунас", style="visited"];
  kiev[label="Киев", style="visited"];
  gitomir[label="Житомир", style="visited"];
  donetsk[label="Донетск", style="visited"];
  kishinev[label="Кишинев", style="visited"];
  spb[label="С.Петербург", style="visited"];
  riga[label="Рига", style="visited"];
  moscow[label="Москва", style="visited"];
  kazan[label="Казань", style="init"];
  minsk[label="Минск"];
  murmansk[label="Мурманск", style="visited"];
  orel[label="Орел", style="visited"];
  odessa[label="Одесса", style="visited"];
  tallin[label="Таллинн", style="visited"];
  harkov[label="Харьков", style="visited"];
  simpheropol[label="Симферополь", style="visited"];
  yaroslavl[label="Ярославль", style="visited"];
  ufa[label="Уфа"];
  samara[label="Самара"];

  brest->vilnus[label="1", len=531, style="visited", dir="forward", lblstyle="visited"];

    vilnus->brest[label="2", len=531, style="visited2", dir="forward", lblstyle="visited2"];
      brest->vilnus[label="3", len=531, style="visited3", dir="forward", lblstyle="visited3"];
        vilnus->brest[label="4", len=531, style="visited4", dir="both", lblstyle="visited4"];
        vilnus->vitebsk[label="4", len=360, style="visited4", dir="both", lblstyle="visited4"];
        vilnus->daugavpils[label="4", len=211, style="visited4", dir="forward", lblstyle="visited4"];
        vilnus->kaunas[label="4", len=102, style="visited4", dir="forward", lblstyle="visited4"];
        vilnus->kiev[label="4", len=602, style="visited4", dir="forward", lblstyle="visited4"];
      brest->vitebsk[label="3", len=638, style="visited3", dir="both", lblstyle="visited3"];
        //vitebsk->vilnus[label="4", len=360, style="visited4", dir="forward", lblstyle="visited4"];
        vitebsk->volgograd[label="4", len=1455, style="visited4", dir="both", lblstyle="visited4"];
        vitebsk->voronezh[label="4", len=869, style="visited4", dir="both", lblstyle="visited4"];
        vitebsk->nizh_novgorod[label="4", len=911, style="visited4", dir="both", lblstyle="visited4"];
        vitebsk->orel[label="4", len=522, style="visited4", dir="both", lblstyle="visited4"];
        //vitebsk->spb[label="4", len=744, style="visited4", dir="forward", lblstyle="visited4"];
        //vitebsk->brest[label="4", len=648, style="visited4", dir="forward", lblstyle="visited4"];
      brest->kaliningrad[label="3", len=699, style="visited3", dir="both", lblstyle="visited3"];
        kaliningrad->vilnus[label="4", len=333, style="visited4", dir="forward", lblstyle="visited4"];
        kaliningrad->spb[label="4", len=739, style="visited4", dir="both", lblstyle="visited4"];
        //kaliningrad->brest[label="4", len=699, style="visited4", dir="forward", lblstyle="visited4"];

    vilnus->vitebsk[label="2", len=360, style="visited2", dir="forward", lblstyle="visited2"];
      vitebsk->vilnus[label="3", len=360, style="visited3", dir="forward", lblstyle="visited3"];
        //vilnus->brest[label="4", len=531, style="visited4", dir="forward", lblstyle="visited4"];
        //vilnus->vitebsk[label="4", len=360, style="visited4", dir="forward", lblstyle="visited4"];
        //vilnus->daugavpils[label="4", len=211, style="visited4", dir="forward", lblstyle="visited4"];
        //vilnus->kaunas[label="4", len=102, style="visited4", dir="forward", lblstyle="visited4"];
        //vilnus->kiev[label="4", len=602, style="visited4", dir="forward", lblstyle="visited4"];
      vitebsk->volgograd[label="3", len=1455, style="visited3", dir="forward", lblstyle="visited3"];
        volgograd->voronezh[label="4", len=581, style="visited4", dir="both", lblstyle="visited4"];
        //volgograd->vitebsk[label="4", len=1455, style="visited4", dir="forward", lblstyle="visited4"];
        volgograd->gitomir[label="4", len=1493, style="visited4", dir="both", lblstyle="visited4"];
      vitebsk->voronezh[label="3", len=869, style="visited3", dir="forward", lblstyle="visited3"];
        //voronezh->vitebsk[label="4", len=869, style="visited4", dir="forward", lblstyle="visited4"];
        //voronezh->volgograd[label="4", len=581, style="visited4", dir="both", lblstyle="visited4"];
        voronezh->yaroslavl[label="4", len=739, style="visited4", dir="forward", lblstyle="visited4"];
      vitebsk->nizh_novgorod[label="3", len=911, style="visited3", dir="forward", lblstyle="visited3"];
        //nizh_novgorod->vitebsk[label="4", len=911, style="visited4", dir="forward", lblstyle="visited4"];
        nizh_novgorod->moscow[label="4", len=411, style="visited4", dir="forward", lblstyle="visited4"];
      vitebsk->orel[label="3", len=522, style="visited3", dir="forward", lblstyle="visited3"];
        //orel->vitebsk[label="4", len=522, style="visited4", dir="forward", lblstyle="visited4"];
        orel->donetsk[label="4", len=709, style="visited4", dir="forward", lblstyle="visited4"];
        orel->moscow[label="4", len=368, style="visited4", dir="forward", lblstyle="visited4"];
      vitebsk->spb[label="3", len=734, style="visited3", dir="forward", lblstyle="visited3"];
        spb->vitebsk[label="4", len=602, style="visited4", dir="both", lblstyle="visited4"];
        //spb->kaliningrad[label="4", len=739, style="visited4", dir="forward", lblstyle="visited4"];
        spb->moscow[label="4", len=664, style="visited4", dir="forward", lblstyle="visited4"];
        spb->murmansk[label="4", len=1412, style="visited4", dir="forward", lblstyle="visited4"];
        spb->riga[label="4", len=641, style="visited4", dir="both", lblstyle="visited4"];
      //vitebsk->brest[label="3", len=638, style="visited3", dir="forward", lblstyle="visited3"];
        //brest->vilnus[label="4", len=531, style="visited4", dir="forward", lblstyle="visited4"];
        brest->vitebsk[label="4", len=638, style="visited4", dir="both", lblstyle="visited4"];
        brest->kaliningrad[label="4", len=699, style="visited4", dir="both", lblstyle="visited4"];


    vilnus->daugavpils[label="2", len=211, style="visited2", dir="forward", lblstyle="visited2"];
      daugavpils->vilnus[label="3", len=211, style="visited3", dir="forward", lblstyle="visited3"];
        //vilnus->brest[label="4", len=531, style="visited4", dir="forward", lblstyle="visited4"];
        //vilnus->vitebsk[label="4", len=360, style="visited4", dir="forward", lblstyle="visited4"];
        //vilnus->daugavpils[label="4", len=211, style="visited4", dir="forward", lblstyle="visited4"];
        //vilnus->kaunas[label="4", len=102, style="visited4", dir="forward", lblstyle="visited4"];
        //vilnus->kiev[label="4", len=602, style="visited4", dir="forward", lblstyle="visited4"];

    vilnus->kaliningrad[label="2", len=333, style="visited2", dir="forward", lblstyle="visited2"];
      kaliningrad->vilnus[label="3", len=333, style="visited3", dir="forward", lblstyle="visited3"];
        //vilnus->brest[label="4", len=531, style="visited4", dir="forward", lblstyle="visited4"];
        //vilnus->vitebsk[label="4", len=360, style="visited4", dir="forward", lblstyle="visited4"];
        //vilnus->daugavpils[label="4", len=211, style="visited4", dir="forward", lblstyle="visited4"];
        //vilnus->kaunas[label="4", len=102, style="visited4", dir="forward", lblstyle="visited4"];
        //vilnus->kiev[label="4", len=602, style="visited4", dir="forward", lblstyle="visited4"];
      kaliningrad->spb[label="3", len=739, style="visited3", dir="forward", lblstyle="visited3"];
        //spb->vitebsk[label="4", len=602, style="visited4", dir="forward", lblstyle="visited4"];
        //spb->kaliningrad[label="4", len=739, style="visited4", dir="forward", lblstyle="visited4"];
        //spb->moscow[label="4", len=664, style="visited4", dir="forward", lblstyle="visited4"];
        //spb->murmansk[label="4", len=1412, style="visited4", dir="forward", lblstyle="visited4"];
        //spb->riga[label="4", len=641, style="visited4", dir="forward", lblstyle="visited4"];
      //kaliningrad->brest[label="3", len=699, style="visited3", dir="forward", lblstyle="visited3"];
        //brest->vilnus[label="4", len=531, style="visited4", dir="forward", lblstyle="visited4"];
        //brest->vitebsk[label="4", len=638, style="visited4", dir="forward", lblstyle="visited4"];
        //brest->kaliningrad[label="4", len=699, style="visited4", dir="forward", lblstyle="visited4"];

    vilnus->kaunas[label="2", len=102, style="visited2", dir="forward", lblstyle="visited2"];
      kaunas->vilnus[label="3", len=102, style="visited3", dir="forward", lblstyle="visited3"];
        //vilnus->brest[label="4", len=531, style="visited4", dir="forward", lblstyle="visited4"];
        //vilnus->vitebsk[label="4", len=360, style="visited4", dir="forward", lblstyle="visited4"];
        //vilnus->daugavpils[label="4", len=211, style="visited4", dir="forward", lblstyle="visited4"];
        //vilnus->kaunas[label="4", len=102, style="visited4", dir="forward", lblstyle="visited4"];
        //vilnus->kiev[label="4", len=602, style="visited4", dir="forward", lblstyle="visited4"];
      kaunas->riga[label="3", len=267, style="visited3", dir="forward", lblstyle="visited3"];
        riga->kaunas[label="4", len=267, style="visited4", dir="forward", lblstyle="visited4"];
        //riga->spb[label="4", len=641, style="visited4", dir="forward", lblstyle="visited4"];
        riga->tallin[label="4", len=308, style="visited4", dir="forward", lblstyle="visited4"];

    vilnus->kiev[label="2", len=602, style="visited2", dir="forward", lblstyle="visited2"];
      kiev->vilnus[label="3", len=602, style="visited3", dir="forward", lblstyle="visited3"];
        //vilnus->brest[label="4", len=531, style="visited4", dir="forward", lblstyle="visited4"];
        //vilnus->vitebsk[label="4", len=360, style="visited4", dir="forward", lblstyle="visited4"];
        //vilnus->daugavpils[label="4", len=211, style="visited4", dir="forward", lblstyle="visited4"];
        //vilnus->kaunas[label="4", len=102, style="visited4", dir="forward", lblstyle="visited4"];
        //vilnus->kiev[label="4", len=602, style="visited4", dir="forward", lblstyle="visited4"];
      kiev->kishinev[label="3", len=467, style="visited3", dir="forward", lblstyle="visited3"];
        kishinev->donetsk[label="4", len=812, style="visited4", dir="forward", lblstyle="visited4"];
        kishinev->kiev[label="4", len=467, style="visited4", dir="forward", lblstyle="visited4"];
      kiev->odessa[label="3", len=487, style="visited3", dir="forward", lblstyle="visited3"];
        odessa->kiev[label="4", len=487, style="visited4", dir="forward", lblstyle="visited4"];
      kiev->harkov[label="3", len=471, style="visited3", dir="forward", lblstyle="visited3"];
        harkov->kiev[label="4", len=471, style="visited4", dir="forward", lblstyle="visited4"];
        harkov->simpheropol[label="4", len=639, style="visited4", dir="forward", lblstyle="visited4"];
      kiev->gitomir[label="3", len=131, style="visited3", dir="forward", lblstyle="visited3"];
        //gitomir->volgograd[label="4", len=1493, style="visited4", dir="forward", lblstyle="visited4"];
        gitomir->donetsk[label="4", len=863, style="visited4", dir="forward", lblstyle="visited4"];
        gitomir->kiev[label="4", len=131, style="visited4", dir="forward", lblstyle="visited4"];

  moscow->kazan[len=815];
  moscow->minsk[len=690];
  moscow->donetsk[len=1084];
  murmansk->minsk[len=2238];
  yaroslavl->minsk[len=940];
  ufa->kazan[len=525];
  ufa->samara[len=461];
}
