digraph G {
  d2tfigpreamble = "
    \tikzstyle{init}=[color=red, line width=3pt, font=\bf]
    \tikzstyle{visited1}=[color=blue, line width=3pt, font=\bf]
    \tikzstyle{visited2}=[color=green, line width=3pt, font=\bf]
  "
  graph [overlap=false, splines=true];
  edge [dir="both"];
  node [shape=ellipse];
  vilnus[label="Вильнюс(1508)"];
  brest[label="Брест(1703)", style="init"];
  vitebsk[label="Витебск(1189)" style="visited1"];
  voronezh[label="Воронеж(797)"];
  volgograd[label="Волгоград(847)"];
  nizh_novgorod[label="Н.Новгород(322)" style="visited1"];
  daugavpils[label="Даугавпилс(1404)"];
  kaliningrad[label="Калининград(1804)"];
  kaunas[label="Каунас(1589)"];
  kiev[label="Киев(1369)"];
  gitomir[label="Житомир(1493)"];
  donetsk[label="Донетск(1158 )"];
  kishinev[label="Кишинев(1700)"];
  spb[label="С.Петербург(1198)"];
  riga[label="Рига(1536 )"];
  moscow[label="Москва(718)" style="visited1"];
  kazan[label="Казань(0)", style="init"];
  minsk[label="Минск(1389)"];
  murmansk[label="Мурманск(1668)"];
  orel[label="Орел(899)"];
  odessa[label="Одесса(1639)"];
  tallin[label="Таллинн(1496)"];
  harkov[label="Харьков(1075)"];
  simpheropol[label="Симферополь(1602)"];
  yaroslavl[label="Ярославль(599)"];
  ufa[label="Уфа(452)"];
  samara[label="Самара(296)"];

  vilnus->brest[label="531", len=531];
  vitebsk->brest[label="638", len=638 style="visited1"];
  vitebsk->vilnus[label="360", len=360];
  voronezh->vitebsk[label="869", len=869];
  voronezh->volgograd[label="581", len=581];
  volgograd->vitebsk[label="1455", len=1455];
  vitebsk->nizh_novgorod[label="911", len=911 style="visited1"];
  vilnus->daugavpils[label="211", len=211];
  kaliningrad->brest[label="699", len=699];
  kaliningrad->vilnus[label="333", len=333];
  kaunas->vilnus[label="102", len=102];
  kiev->vilnus[label="734", len=734];
  kiev->gitomir[label="131", len=131];
  gitomir->donetsk[label="863", len=863];
  gitomir->volgograd[label="1493", len=1493];
  kishinev->kiev[label="467", len=467];
  kishinev->donetsk[label="812", len=812];
  spb->vitebsk[label="602", len=602];
  spb->kaliningrad[label="739", len=739];
  spb->riga[label="641", len=641];
  moscow->kazan[label="815", len=815 style="visited1"];
  moscow->nizh_novgorod[label="411", len=411 style="visited1"];
  moscow->minsk[label="690", len=690];
  moscow->donetsk[label="1084", len=1084];
  moscow->spb[label="664", len=664];
  murmansk->spb[label="1412", len=1412];
  murmansk->minsk[label="2238", len=2238];
  orel->vitebsk[label="522", len=522];
  orel->donetsk[label="709", len=709];
  orel->moscow[label="368", len=368];
  odessa->kiev[label="487", len=487];
  riga->kaunas[label="267", len=267];
  tallin->riga[label="308", len=308];
  harkov->kiev[label="471", len=471];
  harkov->simpheropol[label="639", len=639];
  yaroslavl->voronezh[label="739", len=739];
  yaroslavl->minsk[label="940", len=940];
  ufa->kazan[label="525", len=525];
  ufa->samara[label="461", len=461];
}
