digraph G {
  d2tfigpreamble = "
    \tikzstyle{init}=[color=red, line width=3pt, font=\bf]
    \tikzstyle{visited}=[color=blue, line width=3pt, font=\bf]
  "
  graph [overlap=false, splines=true];
  edge [dir="both"];
  node [shape=ellipse];
  vilnus[label="Вильнюс" style="visited"];
  brest[label="Брест", style="init"];
  vitebsk[label="Витебск" style="visited"];
  voronezh[label="Воронеж"];
  volgograd[label="Волгоград"];
  nizh_novgorod[label="Н.Новгород"];
  daugavpils[label="Даугавпилс"];
  kaliningrad[label="Калининград" style="visited"];
  kaunas[label="Каунас"];
  kiev[label="Киев"];
  gitomir[label="Житомир"];
  donetsk[label="Донетск"];
  kishinev[label="Кишинев"];
  spb[label="С.Петербург"];
  riga[label="Рига"];
  moscow[label="Москва" style="visited"];
  kazan[label="Казань", style="init"];
  minsk[label="Минск"];
  murmansk[label="Мурманск"];
  orel[label="Орел"];
  odessa[label="Одесса"];
  tallin[label="Таллинн"];
  harkov[label="Харьков"];
  simpheropol[label="Симферополь"];
  yaroslavl[label="Ярославль"];
  ufa[label="Уфа"];
  samara[label="Самара"];

  vilnus->brest[label="531", len=531 style="visited"];
  vitebsk->brest[label="638", len=638 style="visited"];
  vitebsk->vilnus[label="360", len=360];
  voronezh->vitebsk[label="869", len=869];
  voronezh->volgograd[label="581", len=581];
  volgograd->vitebsk[label="1455", len=1455];
  vitebsk->nizh_novgorod[label="911", len=911];
  vilnus->daugavpils[label="211", len=211];
  kaliningrad->brest[label="699", len=699 style="visited"];
  kaliningrad->vilnus[label="333", len=333];
  kaunas->vilnus[label="102", len=102];
  kiev->vilnus[label="734", len=734];
  kiev->gitomir[label="131", len=131];
  gitomir->donetsk[label="863", len=863];
  gitomir->volgograd[label="1493", len=1493];
  kishinev->kiev[label="467", len=467];
  kishinev->donetsk[label="812", len=812];
  spb->vitebsk[label="602", len=602];
  spb->kaliningrad[label="739", len=739];
  spb->riga[label="641", len=641];
  moscow->kazan[label="815", len=815 style="visited"];
  moscow->nizh_novgorod[label="411", len=411];
  moscow->minsk[label="690", len=690];
  moscow->donetsk[label="1084", len=1084];
  moscow->spb[label="664", len=664];
  murmansk->spb[label="1412", len=1412];
  murmansk->minsk[label="2238", len=2238];
  orel->vitebsk[label="522", len=522];
  orel->donetsk[label="709", len=709];
  orel->moscow[label="368", len=368];
  odessa->kiev[label="487", len=487];
  riga->kaunas[label="267", len=267];
  tallin->riga[label="308", len=308];
  harkov->kiev[label="471", len=471];
  harkov->simpheropol[label="639", len=639];
  yaroslavl->voronezh[label="739", len=739];
  yaroslavl->minsk[label="940", len=940];
  ufa->kazan[label="525", len=525];
  ufa->samara[label="461", len=461];
}
